%YAML 1.1
%TAG !u! tag:unity3d.com,2011:
--- !u!1001 &3755700273864159075
PrefabInstance:
  m_ObjectHideFlags: 0
  serializedVersion: 2
  m_Modification:
    m_TransformParent: {fileID: 0}
    m_Modifications:
    - target: {fileID: 5518146872379690144, guid: ea9c1722b0db147b79584714e3a92e1a,
        type: 3}
      propertyPath: m_Name
      value: InvaderRed
      objectReference: {fileID: 0}
    - target: {fileID: 5518146872379690145, guid: ea9c1722b0db147b79584714e3a92e1a,
        type: 3}
      propertyPath: m_LocalPosition.x
      value: 0
      objectReference: {fileID: 0}
    - target: {fileID: 5518146872379690145, guid: ea9c1722b0db147b79584714e3a92e1a,
        type: 3}
      propertyPath: m_LocalPosition.y
      value: 0
      objectReference: {fileID: 0}
    - target: {fileID: 5518146872379690145, guid: ea9c1722b0db147b79584714e3a92e1a,
        type: 3}
      propertyPath: m_LocalPosition.z
      value: 0
      objectReference: {fileID: 0}
    - target: {fileID: 5518146872379690145, guid: ea9c1722b0db147b79584714e3a92e1a,
        type: 3}
      propertyPath: m_LocalRotation.x
      value: 0
      objectReference: {fileID: 0}
    - target: {fileID: 5518146872379690145, guid: ea9c1722b0db147b79584714e3a92e1a,
        type: 3}
      propertyPath: m_LocalRotation.y
      value: 0
      objectReference: {fileID: 0}
    - target: {fileID: 5518146872379690145, guid: ea9c1722b0db147b79584714e3a92e1a,
        type: 3}
      propertyPath: m_LocalRotation.z
      value: 0
      objectReference: {fileID: 0}
    - target: {fileID: 5518146872379690145, guid: ea9c1722b0db147b79584714e3a92e1a,
        type: 3}
      propertyPath: m_LocalRotation.w
      value: 1
      objectReference: {fileID: 0}
    - target: {fileID: 5518146872379690145, guid: ea9c1722b0db147b79584714e3a92e1a,
        type: 3}
      propertyPath: m_RootOrder
      value: 0
      objectReference: {fileID: 0}
    - target: {fileID: 5518146872379690145, guid: ea9c1722b0db147b79584714e3a92e1a,
        type: 3}
      propertyPath: m_LocalEulerAnglesHint.x
      value: 0
      objectReference: {fileID: 0}
    - target: {fileID: 5518146872379690145, guid: ea9c1722b0db147b79584714e3a92e1a,
        type: 3}
      propertyPath: m_LocalEulerAnglesHint.y
      value: 0
      objectReference: {fileID: 0}
    - target: {fileID: 5518146872379690145, guid: ea9c1722b0db147b79584714e3a92e1a,
        type: 3}
      propertyPath: m_LocalEulerAnglesHint.z
      value: 0
      objectReference: {fileID: 0}
    - target: {fileID: 5518146872379690145, guid: ea9c1722b0db147b79584714e3a92e1a,
        type: 3}
      propertyPath: m_AnchoredPosition.x
      value: -281
      objectReference: {fileID: 0}
    - target: {fileID: 5518146872379690145, guid: ea9c1722b0db147b79584714e3a92e1a,
        type: 3}
      propertyPath: m_AnchoredPosition.y
      value: 595
      objectReference: {fileID: 0}
    - target: {fileID: 5518146872379690145, guid: ea9c1722b0db147b79584714e3a92e1a,
        type: 3}
      propertyPath: m_SizeDelta.x
      value: 100
      objectReference: {fileID: 0}
    - target: {fileID: 5518146872379690145, guid: ea9c1722b0db147b79584714e3a92e1a,
        type: 3}
      propertyPath: m_SizeDelta.y
      value: 100
      objectReference: {fileID: 0}
    - target: {fileID: 5518146872379690145, guid: ea9c1722b0db147b79584714e3a92e1a,
        type: 3}
      propertyPath: m_AnchorMin.x
      value: 0
      objectReference: {fileID: 0}
    - target: {fileID: 5518146872379690145, guid: ea9c1722b0db147b79584714e3a92e1a,
        type: 3}
      propertyPath: m_AnchorMin.y
      value: 1
      objectReference: {fileID: 0}
    - target: {fileID: 5518146872379690145, guid: ea9c1722b0db147b79584714e3a92e1a,
        type: 3}
      propertyPath: m_AnchorMax.x
      value: 0
      objectReference: {fileID: 0}
    - target: {fileID: 5518146872379690145, guid: ea9c1722b0db147b79584714e3a92e1a,
        type: 3}
      propertyPath: m_AnchorMax.y
      value: 1
      objectReference: {fileID: 0}
    - target: {fileID: 5518146872379690145, guid: ea9c1722b0db147b79584714e3a92e1a,
        type: 3}
      propertyPath: m_Pivot.x
      value: 0.5
      objectReference: {fileID: 0}
    - target: {fileID: 5518146872379690145, guid: ea9c1722b0db147b79584714e3a92e1a,
        type: 3}
      propertyPath: m_Pivot.y
      value: 0.5
      objectReference: {fileID: 0}
    - target: {fileID: 5518146873633614910, guid: ea9c1722b0db147b79584714e3a92e1a,
        type: 3}
      propertyPath: m_Sprite
      value: 
      objectReference: {fileID: 21300000, guid: b840e41312e3044d7916c956f95dd7db,
        type: 3}
    m_RemovedComponents: []
  m_SourcePrefab: {fileID: 100100000, guid: ea9c1722b0db147b79584714e3a92e1a, type: 3}
